2 Building Static Maps in R Studio | GIS Tools for Qualitative Social Scientists
…
usa_trifecta_data<-read_csv("usa_trifecta.csv")

## 
## ── Column specification ─────────────────────────────────────────────────────────────────────────────────────────
## cols(
##   GEOID = col_double(),
##   NAME = col_character(),
##   abbrev = col_character(),
##   Composition = col_character()
## )

usa_trifecta_data

## # A tibble: 50 x 4
##    GEOID NAME        abbrev Composition        
##    <dbl> <chr>       <chr>  <chr>              
##  1     1 Alabama     AL     Republican Trifecta
##  2     2 Alaska      AK     Divided Government 
##  3     4 Arizona     AZ     Republican Trifecta
##  4     5 Arkansas    AR     Republican Trifecta
##  5     6 California  CA     Democratic Trifecta
##  6     8 Colorado    CO     Democratic Trifecta
##  7     9 Connecticut CT     Democratic Trifecta
##  8    10 Delaware    DE     Democratic Trifecta
##  9    12 Florida     FL     Republican Trifecta
## 10    13 Georgia     GA     Republican Trifecta
## # … with 40 more rows
…
usa_trifecta<-read_csv("usa_trifecta.csv")

## 
## ── Column specification ─────────────────────────────────────────────────────────────────────────────────────────
## cols(
##   GEOID = col_double(),
##   NAME = col_character(),
##   abbrev = col_character(),
##   Composition = col_character()
## )

usa_trifecta

## # A tibble: 50 x 4
##    GEOID NAME        abbrev Composition        
##    <dbl> <chr>       <chr>  <chr>              
##  1     1 Alabama     AL     Republican Trifecta
##  2     2 Alaska      AK     Divided Government 
##  3     4 Arizona     AZ     Republican Trifecta
##  4     5 Arkansas    AR     Republican Trifecta
##  5     6 California  CA     Democratic Trifecta
##  6     8 Colorado    CO     Democratic Trifecta
##  7     9 Connecticut CT     Democratic Trifecta
##  8    10 Delaware    DE     Democratic Trifecta
##  9    12 Florida     FL     Republican Trifecta
## 10    13 Georgia     GA     Republican Trifecta
## # … with 40 more rows
…
